<?xml version="1.0" encoding="UTF-8" standalone="no"?>
<svg
   xmlns:osb="http://www.openswatchbook.org/uri/2009/osb"
   xmlns:dc="http://purl.org/dc/elements/1.1/"
   xmlns:cc="http://creativecommons.org/ns#"
   xmlns:rdf="http://www.w3.org/1999/02/22-rdf-syntax-ns#"
   xmlns:svg="http://www.w3.org/2000/svg"
   xmlns="http://www.w3.org/2000/svg"
   xmlns:xlink="http://www.w3.org/1999/xlink"
   xmlns:sodipodi="http://sodipodi.sourceforge.net/DTD/sodipodi-0.dtd"
   xmlns:inkscape="http://www.inkscape.org/namespaces/inkscape"
   viewBox="0 0 32 32"
   version="1.1"
   id="svg6"
   sodipodi:docname="elive-logo.svg"
   inkscape:version="0.92.4 (5da689c313, 2019-01-14)"
   inkscape:export-filename="/home/triantares/Code/Custom-Elive/gradient-icons/64/elive-logo.png"
   inkscape:export-xdpi="227.42799"
   inkscape:export-ydpi="227.42799">
  <metadata
     id="metadata10">
    <rdf:RDF>
      <cc:Work
         rdf:about="">
        <dc:format>image/svg+xml</dc:format>
        <dc:type
           rdf:resource="http://purl.org/dc/dcmitype/StillImage" />
        <dc:title />
      </cc:Work>
    </rdf:RDF>
  </metadata>
  <sodipodi:namedview
     pagecolor="#ffffff"
     bordercolor="#666666"
     borderopacity="1"
     objecttolerance="10"
     gridtolerance="10"
     guidetolerance="10"
     inkscape:pageopacity="0"
     inkscape:pageshadow="2"
     inkscape:window-width="2038"
     inkscape:window-height="1128"
     id="namedview8"
     showgrid="false"
     inkscape:zoom="29.5"
     inkscape:cx="20.933112"
     inkscape:cy="16"
     inkscape:window-x="0"
     inkscape:window-y="0"
     inkscape:window-maximized="1"
     inkscape:current-layer="svg6" />
  <defs
     id="defs3051">
    <linearGradient
       id="linearGradient842"
       inkscape:collect="always">
      <stop
         id="stop838"
         offset="0"
         style="stop-color:#000080;stop-opacity:1;" />
      <stop
         id="stop840"
         offset="1"
         style="stop-color:#000080;stop-opacity:0.11057692" />
    </linearGradient>
    <linearGradient
       inkscape:collect="always"
       id="linearGradient824">
      <stop
         style="stop-color:#000080;stop-opacity:1;"
         offset="0"
         id="stop820" />
      <stop
         style="stop-color:#000080;stop-opacity:1"
         offset="1"
         id="stop822" />
    </linearGradient>
    <linearGradient
       id="linearGradient2322"
       osb:paint="solid">
      <stop
         style="stop-color:#000000;stop-opacity:1;"
         offset="0"
         id="stop2320" />
    </linearGradient>
    <linearGradient
       id="linearGradient2292"
       osb:paint="solid">
      <stop
         style="stop-color:#000000;stop-opacity:1;"
         offset="0"
         id="stop2290" />
    </linearGradient>
    <linearGradient
       id="linearGradient2284"
       osb:paint="solid">
      <stop
         style="stop-color:#000000;stop-opacity:1;"
         offset="0"
         id="stop2282" />
    </linearGradient>
    <style
       type="text/css"
       id="current-color-scheme">
      .ColorScheme-Text {
        color:#eff0f1;
      }
      </style>
    <linearGradient
       inkscape:collect="always"
       xlink:href="#linearGradient842"
       id="linearGradient826"
       x1="8.6290998"
       y1="7.1673684"
       x2="28.667786"
       y2="35.355759"
       gradientUnits="userSpaceOnUse" />
    <radialGradient
       inkscape:collect="always"
       xlink:href="#linearGradient824"
       id="radialGradient836"
       cx="16.688515"
       cy="16.383852"
       fx="16.688515"
       fy="16.383852"
       r="13.507572"
       gradientTransform="matrix(1,0,0,1.0046876,0,-0.07680141)"
       gradientUnits="userSpaceOnUse" />
    <radialGradient
       inkscape:collect="always"
       xlink:href="#linearGradient824"
       id="radialGradient836-5"
       cx="16.688515"
       cy="16.383852"
       fx="16.688515"
       fy="16.383852"
       r="13.507572"
       gradientTransform="matrix(1,0,0,1.0046876,8e-7,-0.0768016)"
       gradientUnits="userSpaceOnUse" />
  </defs>
  <path
     style="color:#eff0f1;fill:#ffffff;fill-opacity:1;fill-rule:nonzero;stroke:url(#radialGradient836-5);stroke-width:1.03065991;stroke-opacity:1"
     d="m 28.690172,21.719193 0.841846,-1.927898 -2.692061,-1.415742 -13.137437,-6.769268 -2.28918,4.86444 13.208733,6.9745 0.899687,0.473141 1.766585,0.761302 0.95815,-2.008491 z m -4.16304,3.737231 -4.500188,-2.366627 c -3.176337,4.507886 -3.567977,4.045569 -8.320155,1.551024 -5.444453,-2.863212 -4.975611,-6.083527 -2.280215,-11.86695 2.695397,-5.783424 4.821947,-8.1319582 10.2664,-5.268747 4.749812,2.501388 5.368136,1.671285 3.919035,7.088373 l 4.487935,2.360183 C 29.785496,11.002524 26.26409,7.412886 21.024005,4.6491748 15.084602,1.5256712 7.886073,4.1081798 4.945641,10.417369 2.005208,16.726558 4.436354,24.373267 10.375757,27.49677 c 5.247483,2.758442 10.715538,2.995518 14.151375,-2.040346 z"
     class="ColorScheme-Text"
     id="path4-6"
     inkscape:connector-curvature="0"
     sodipodi:nodetypes="cccccccccccccsccccscc"
     inkscape:export-filename="/home/triantares/Code/Custom-Elive/64/elive-logo.png"
     inkscape:export-xdpi="229.98235"
     inkscape:export-ydpi="229.98235" />
  <path
     style="color:#eff0f1;fill:url(#linearGradient826);fill-opacity:1;fill-rule:nonzero;stroke:url(#radialGradient836);stroke-width:1.03065991;stroke-opacity:1"
     d="m 28.690172,21.719193 0.841846,-1.927898 -2.692061,-1.415742 -13.137437,-6.769268 -2.289181,4.86444 13.140937,6.872805 0.899687,0.473141 1.834382,0.862997 0.95815,-2.008491 z m -4.16304,3.737231 c -1.47826,-0.773303 -2.458083,-1.190578 -4.500188,-2.366627 -3.176337,4.507886 -3.567977,4.045569 -8.320156,1.551024 C 6.2623348,21.777609 6.7311771,18.557294 9.4265737,12.773871 12.12197,6.9904473 14.248521,4.641913 19.692974,7.5051246 c 4.749812,2.5013874 5.368136,1.6712845 3.919035,7.0883724 l 4.487935,2.360183 C 29.785496,11.002524 26.26409,7.412886 21.024005,4.649175 15.084602,1.5256714 7.8860727,4.10818 4.94564,10.417369 2.0052072,16.726558 4.4363531,24.373267 10.375756,27.49677 c 5.247484,2.758442 10.715539,2.995518 14.151376,-2.040346 z"
     class="ColorScheme-Text"
     id="path4"
     inkscape:connector-curvature="0"
     sodipodi:nodetypes="cccccccccccccsccccscc"
     inkscape:export-filename="/home/triantares/Code/Custom-Elive/64/elive-logo.png"
     inkscape:export-xdpi="229.98235"
     inkscape:export-ydpi="229.98235" />
</svg>
